{
  "objects": [
    {
      "attributes": {
        "description": "",
        "kibanaSavedObjectMeta": {
          "searchSourceJSON": "{\"index\":\"traces:span\",\"query\":{\"query\":\"\",\"language\":\"lucene\"},\"filter\":[]}"
        },
        "title": "Longest Traces durations",
        "uiStateJSON": "{}",
        "version": 1,
        "visState": "{\"aggs\":[{\"enabled\":true,\"id\":\"1\",\"params\":{\"aggregate\":\"max\",\"customLabel\":\"Trace duration (ms)\",\"field\":\"duration\",\"size\":1,\"sortField\":\"duration\",\"sortOrder\":\"desc\"},\"schema\":\"metric\",\"type\":\"top_hits\"},{\"enabled\":true,\"id\":\"2\",\"params\":{\"customLabel\":\"Traces\",\"field\":\"traceId\",\"missingBucket\":false,\"missingBucketLabel\":\"Missing\",\"order\":\"desc\",\"orderAgg\":{\"enabled\":true,\"id\":\"2-orderAgg\",\"params\":{\"field\":\"duration\"},\"schema\":{\"aggFilter\":[\"!top_hits\",\"!percentiles\",\"!median\",\"!std_dev\",\"!derivative\",\"!moving_avg\",\"!serial_diff\",\"!cumulative_sum\",\"!avg_bucket\",\"!max_bucket\",\"!min_bucket\",\"!sum_bucket\"],\"deprecate\":false,\"editor\":false,\"group\":\"none\",\"hideCustomLabel\":true,\"max\":null,\"min\":0,\"name\":\"orderAgg\",\"params\":[],\"title\":\"Order Agg\"},\"type\":\"max\"},\"orderBy\":\"custom\",\"otherBucket\":false,\"otherBucketLabel\":\"Other\",\"size\":10},\"schema\":\"segment\",\"type\":\"terms\"}],\"params\":{\"addLegend\":true,\"addTimeMarker\":false,\"addTooltip\":true,\"categoryAxes\":[{\"id\":\"CategoryAxis-1\",\"labels\":{\"filter\":false,\"rotate\":0,\"show\":true,\"truncate\":200},\"position\":\"left\",\"scale\":{\"type\":\"linear\"},\"show\":true,\"style\":{},\"title\":{},\"type\":\"category\"}],\"grid\":{\"categoryLines\":false,\"style\":{\"color\":\"#eee\"}},\"legendPosition\":\"right\",\"seriesParams\":[{\"data\":{\"id\":\"1\",\"label\":\"Trace duration (ms)\"},\"drawLinesBetweenPoints\":true,\"mode\":\"normal\",\"show\":true,\"showCircles\":true,\"type\":\"histogram\",\"valueAxis\":\"ValueAxis-1\"}],\"times\":[],\"type\":\"histogram\",\"valueAxes\":[{\"id\":\"ValueAxis-1\",\"labels\":{\"filter\":true,\"rotate\":75,\"show\":true,\"truncate\":100},\"name\":\"LeftAxis-1\",\"position\":\"bottom\",\"scale\":{\"mode\":\"normal\",\"type\":\"linear\"},\"show\":true,\"style\":{},\"title\":{\"text\":\"Trace duration (ms)\"},\"type\":\"value\"}]},\"title\":\"Longest Traces durations\",\"type\":\"horizontal_bar\"}"
      },
      "id": "0cb73540-bfd6-11e8-b5e5-cbdd0005bb7b",
      "type": "visualization",
      "updated_at": "2018-09-24T08:50:38.700Z",
      "version": 2
    },
    {
      "attributes": {
        "description": "",
        "kibanaSavedObjectMeta": {
          "searchSourceJSON": "{\"index\":\"traces:span\",\"query\":{\"query\":\"\",\"language\":\"lucene\"},\"filter\":[]}"
        },
        "title": "Longest traces details",
        "uiStateJSON": "{\"vis\":{\"params\":{\"sort\":{\"columnIndex\":null,\"direction\":null}}}}",
        "version": 1,
        "visState": "{\"aggs\":[{\"enabled\":true,\"id\":\"3\",\"params\":{\"aggregate\":\"concat\",\"field\":\"_source\",\"size\":1,\"sortField\":\"timestamp_millis\",\"sortOrder\":\"desc\"},\"schema\":\"metric\",\"type\":\"top_hits\"},{\"enabled\":true,\"id\":\"4\",\"params\":{\"field\":\"traceId\",\"missingBucket\":false,\"missingBucketLabel\":\"Missing\",\"order\":\"desc\",\"orderAgg\":{\"enabled\":true,\"id\":\"4-orderAgg\",\"params\":{\"field\":\"duration\"},\"schema\":{\"aggFilter\":[\"!top_hits\",\"!percentiles\",\"!median\",\"!std_dev\",\"!derivative\",\"!moving_avg\",\"!serial_diff\",\"!cumulative_sum\",\"!avg_bucket\",\"!max_bucket\",\"!min_bucket\",\"!sum_bucket\"],\"deprecate\":false,\"editor\":false,\"group\":\"none\",\"hideCustomLabel\":true,\"max\":null,\"min\":0,\"name\":\"orderAgg\",\"params\":[],\"title\":\"Order Agg\"},\"type\":\"max\"},\"orderBy\":\"custom\",\"otherBucket\":false,\"otherBucketLabel\":\"Other\",\"size\":10},\"schema\":\"bucket\",\"type\":\"terms\"}],\"params\":{\"perPage\":10,\"showMetricsAtAllLevels\":false,\"showPartialRows\":false,\"showTotal\":false,\"sort\":{\"columnIndex\":null,\"direction\":null},\"totalFunc\":\"sum\"},\"title\":\"Longest traces details\",\"type\":\"table\"}"
      },
      "id": "b324f390-bfd6-11e8-b5e5-cbdd0005bb7b",
      "type": "visualization",
      "updated_at": "2018-09-24T08:49:52.480Z",
      "version": 2
    },
    {
      "attributes": {
        "description": "View distributed traces",
        "hits": 0,
        "kibanaSavedObjectMeta": {
          "searchSourceJSON": "{\"query\":{\"language\":\"lucene\",\"query\":\"\"},\"filter\":[]}"
        },
        "optionsJSON": "{\"darkTheme\":false,\"hidePanelTitles\":false,\"useMargins\":true}",
        "panelsJSON": "[{\"embeddableConfig\":{},\"gridData\":{\"h\":15,\"i\":\"1\",\"w\":21,\"x\":0,\"y\":0},\"id\":\"0cb73540-bfd6-11e8-b5e5-cbdd0005bb7b\",\"panelIndex\":\"1\",\"type\":\"visualization\",\"version\":\"6.5.0\"},{\"embeddableConfig\":{},\"gridData\":{\"h\":15,\"i\":\"2\",\"w\":27,\"x\":21,\"y\":0},\"id\":\"b324f390-bfd6-11e8-b5e5-cbdd0005bb7b\",\"panelIndex\":\"2\",\"type\":\"visualization\",\"version\":\"6.5.0\"}]",
        "timeRestore": false,
        "title": "traces-dashboard",
        "version": 1
      },
      "id": "81d34a00-bfd4-11e8-b5e5-cbdd0005bb7b",
      "type": "dashboard",
      "updated_at": "2018-09-24T08:50:53.230Z",
      "version": 3
    }
  ],
  "version": "6.5.0"
}